…
    ## Warning: Expected 2 pieces. Additional pieces discarded in 500 rows [4211, 4212,
    ## 4213, 4214, 4215, 4216, 4217, 4218, 4219, 4220, 4221, 4222, 4223, 4224, 4225,
    ## 4226, 4227, 4228, 4229, 4230, ...].

``` r
brfss_clean
```

    ## # A tibble: 8,500 × 23
    ##     year state county   class  topic  question   response sample_size data_value
    ##    <int> <chr> <chr>    <chr>  <chr>  <chr>      <ord>          <int>      <dbl>
    ##  1  2010 "AL " " Jeffe… Healt… Overa… How is yo… Poor              45        5.5
    ##  2  2010 "AL " " Mobil… Healt… Overa… How is yo… Poor              66        6.4
    ##  3  2010 "AL " " Tusca… Healt… Overa… How is yo… Poor              35        4.2
    ##  4  2010 "AZ " " Maric… Healt… Overa… How is yo… Poor              62        3.5
    ##  5  2010 "AZ " " Pima … Healt… Overa… How is yo… Poor              49        5.7
    ##  6  2010 "AZ " " Pinal… Healt… Overa… How is yo… Poor              30        4  
    ##  7  2010 "AR " " Bento… Healt… Overa… How is yo… Poor              21        3  
    ##  8  2010 "AR " " Pulas… Healt… Overa… How is yo… Poor              36        3.8
    ##  9  2010 "AR " " Washi… Healt… Overa… How is yo… Poor              16        2.4
    ## 10  2010 "CA " " Alame… Healt… Overa… How is yo… Poor              23        2.4
    ## # … with 8,490 more rows, and 14 more variables: confidence_limit_low <dbl>,
    ## #   confidence_limit_high <dbl>, display_order <int>, data_value_unit <chr>,
    ## #   data_value_type <chr>, data_value_footnote_symbol <chr>,
    ## #   data_value_footnote <chr>, data_source <chr>, class_id <chr>,
    ## #   topic_id <chr>, location_id <chr>, question_id <chr>, respid <chr>,
    ## #   geo_location <chr>
…
